[
  {
    "_id": "72620970-0545-11e8-835b-cd2a39b40619",
    "_type": "visualization",
    "_source": {
      "title": "ECO Workflow Rank",
      "visState": "{\"title\":\"ECO Workflow Rank\",\"type\":\"table\",\"params\":{\"perPage\":20,\"showMeticsAtAllLevels\":false,\"showPartialRows\":false,\"showTotal\":false,\"sort\":{\"columnIndex\":null,\"direction\":null},\"totalFunc\":\"sum\"},\"aggs\":[{\"id\":\"1\",\"enabled\":true,\"type\":\"count\",\"schema\":\"metric\",\"params\":{}},{\"id\":\"2\",\"enabled\":true,\"type\":\"terms\",\"schema\":\"bucket\",\"params\":{\"field\":\"workflowName.keyword\",\"size\":100,\"order\":\"desc\",\"orderBy\":\"1\"}}]}",
      "uiStateJSON": "{\"vis\":{\"params\":{\"sort\":{\"columnIndex\":null,\"direction\":null}}}}",
      "description": "",
      "version": 1,
      "kibanaSavedObjectMeta": {
        "searchSourceJSON": "{\"index\":\"79f51c80-0541-11e8-835b-cd2a39b40619\",\"filter\":[{\"$state\":{\"store\":\"appState\"},\"meta\":{\"alias\":null,\"disabled\":false,\"index\":\"79f51c80-0541-11e8-835b-cd2a39b40619\",\"key\":\"tags\",\"negate\":false,\"params\":{\"query\":\"workflow\",\"type\":\"phrase\"},\"type\":\"phrase\",\"value\":\"workflow\"},\"query\":{\"match\":{\"tags\":{\"query\":\"workflow\",\"type\":\"phrase\"}}}}],\"query\":{\"language\":\"lucene\",\"query\":\"\"}}"
      }
    }
  },
  {
    "_id": "f6b76810-0544-11e8-835b-cd2a39b40619",
    "_type": "visualization",
    "_source": {
      "title": "ECO Log Level Pie Chart",
      "visState": "{\"aggs\":[{\"enabled\":true,\"id\":\"1\",\"params\":{},\"schema\":\"metric\",\"type\":\"count\"},{\"enabled\":true,\"id\":\"2\",\"params\":{\"field\":\"level.keyword\",\"order\":\"desc\",\"orderBy\":\"1\",\"size\":20},\"schema\":\"segment\",\"type\":\"terms\"}],\"params\":{\"addLegend\":true,\"addTooltip\":true,\"isDonut\":true,\"labels\":{\"last_level\":true,\"show\":true,\"truncate\":100,\"values\":true},\"legendPosition\":\"right\",\"type\":\"pie\"},\"title\":\"ECO Log Level Pie Chart\",\"type\":\"pie\"}",
      "uiStateJSON": "{\"vis\":{\"colors\":{\"DEBUG\":\"#64B0C8\",\"ERROR\":\"#BF1B00\",\"INFO\":\"#629E51\",\"WARN\":\"#E5AC0E\"}}}",
      "description": "",
      "version": 1,
      "kibanaSavedObjectMeta": {
        "searchSourceJSON": "{\"index\":\"79f51c80-0541-11e8-835b-cd2a39b40619\",\"filter\":[],\"query\":{\"language\":\"lucene\",\"query\":\"\"}}"
      }
    }
  },
  {
    "_id": "2bb89a30-0549-11e8-835b-cd2a39b40619",
    "_type": "visualization",
    "_source": {
      "title": "ECO Log Count Plot",
      "visState": "{\"title\":\"ECO Log Count Plot\",\"type\":\"timelion\",\"params\":{\"expression\":\".es(*)\",\"interval\":\"auto\"},\"aggs\":[]}",
      "uiStateJSON": "{}",
      "description": "",
      "version": 1,
      "kibanaSavedObjectMeta": {
        "searchSourceJSON": "{}"
      }
    }
  },
  {
    "_id": "e3ab0500-173d-11e8-835b-cd2a39b40619",
    "_type": "visualization",
    "_source": {
      "title": "ECO Host Filter",
      "visState": "{\"title\":\"ECO Host Filter\",\"type\":\"input_control_vis\",\"params\":{\"controls\":[{\"id\":\"1517328990034\",\"indexPattern\":\"79f51c80-0541-11e8-835b-cd2a39b40619\",\"fieldName\":\"host.keyword\",\"label\":\"Host\",\"type\":\"list\",\"options\":{\"type\":\"terms\",\"multiselect\":false,\"size\":5000,\"order\":\"desc\"}}],\"updateFiltersOnChange\":true},\"aggs\":[]}",
      "uiStateJSON": "{}",
      "description": "",
      "version": 1,
      "kibanaSavedObjectMeta": {
        "searchSourceJSON": "{}"
      }
    }
  },
  {
    "_id": "4c7c2700-0544-11e8-835b-cd2a39b40619",
    "_type": "visualization",
    "_source": {
      "title": "ECO Exception Rank",
      "visState": "{\"title\":\"ECO Exception Rank\",\"type\":\"table\",\"params\":{\"perPage\":20,\"showPartialRows\":false,\"showMeticsAtAllLevels\":false,\"sort\":{\"columnIndex\":null,\"direction\":null},\"showTotal\":false,\"totalFunc\":\"sum\"},\"aggs\":[{\"id\":\"1\",\"enabled\":true,\"type\":\"count\",\"schema\":\"metric\",\"params\":{}},{\"id\":\"2\",\"enabled\":true,\"type\":\"terms\",\"schema\":\"bucket\",\"params\":{\"field\":\"javaexception.keyword\",\"size\":100,\"order\":\"desc\",\"orderBy\":\"1\"}}]}",
      "uiStateJSON": "{\"vis\":{\"params\":{\"sort\":{\"columnIndex\":null,\"direction\":null}}}}",
      "description": "",
      "version": 1,
      "kibanaSavedObjectMeta": {
        "searchSourceJSON": "{\"index\":\"79f51c80-0541-11e8-835b-cd2a39b40619\",\"filter\":[{\"meta\":{\"index\":\"79f51c80-0541-11e8-835b-cd2a39b40619\",\"negate\":false,\"disabled\":false,\"alias\":null,\"type\":\"phrase\",\"key\":\"tags\",\"value\":\"exception\",\"params\":{\"query\":\"exception\",\"type\":\"phrase\"}},\"query\":{\"match\":{\"tags\":{\"query\":\"exception\",\"type\":\"phrase\"}}},\"$state\":{\"store\":\"appState\"}}],\"query\":{\"query\":\"tags:exception\",\"language\":\"lucene\"}}"
      }
    }
  }
]